Instacart Dataset
…
## Warning in RColorBrewer::brewer.pal(N, "Set2"): n too large, allowed maximum for palette Set2 is 8
## Returning the palette you asked for with that many colors

## Warning in RColorBrewer::brewer.pal(N, "Set2"): n too large, allowed maximum for palette Set2 is 8
## Returning the palette you asked for with that many colors

instacart_sample

## # A tibble: 10,000 x 15
##    order_id product_id add_to_cart_ord reordered user_id eval_set
##       <int>      <int>            <int>     <int>   <int> <chr>   
##  1   896857      23630               12         0  159045 train   
##  2  1266084      37642                1         1   21113 train   
##  3  1953839      30391                6         1  100525 train   
##  4  3108909      49075                6         0   50380 train   
##  5   680325      43789                1         1   21757 train   
##  6  3072634      32747                8         0  102758 train   
##  7  3230679      33401                4         0   99891 train   
##  8  2257603      44632                3         1  163721 train   
##  9  2148726       6221               10         0  130586 train   
## 10   212185      39046                9         0   84102 train   
## # ... with 9,990 more rows, and 9 more variables: order_number <int>,
## #   order_dow <int>, order_hour_of_day <int>,
## #   days_since_prior_order <int>, product_name <chr>, aisle_id <int>,
## #   department_id <int>, aisle <chr>, department <chr>
…
